-1 16.2 14.2 7.03 7.57 16.57 18.5 1.12 14.40 1.12 16.36 7.15 7.15 7.57 -1 20.12 20.05 10.32 12.06 18.02
10.15 -1 19.2 -1 -1 19.2 -1 -1 -1 -1 17.06 -1 19.2 -1 -1 -1 -1 -1 -1 -1
15.44 19.1 -1 23.27 21.49 4.10 22.55 22.55 -1 4.10 19.25 19.1 0.33 8.46 7.23 20.17 22.50 10.34 -1 18.34
13.15 -1 20.15 -1 20.15 10.35 18.48 -1 -1 18.48 17.11 18.15 15.3 -1 -1 -1 -1 -1 12.37 1.19
8.28 -1 7.43 16.10 -1 10.35 6.31 6.31 -1 -1 1.56 23.21 18.33 2.43 14.48 9.43 22.10 16.43 -1 20.29
15.26 12.53 10.47 17.40 12.06 -1 10.43 17.20 15.45 2.21 2.27 15.36 1.16 9.5 -1 19.27 18.09 21.52 3.23 19.04
8.59 -1 18.24 19.14 16.58 16.58 -1 19.59 19.12 -1 21.18 -1 -1 -1 -1 15.42 20.11 23.31 -1 19.30
1.47 -1 17.05 -1 1.47 22.18 1.43 -1 5.52 -1 17.05 -1 -1 -1 -1 -1 20.59 17.39 -1 -1
12.30 -1 -1 -1 -1 22.15 0.22 12.32 -1 -1 -1 -1 -1 -1 -1 -1 11.18 17.39 -1 15.20
17.56 -1 21.12 17.43 -1 18.16 -1 -1 -1 -1 21.12 -1 -1 -1 -1 -1 -1 21.52 22.38 14.50
5.43 17.06 12.57 18.44 18.16 17.31 16.37 16.37 -1 21.26 -1 21.57 21.38 18.16 -1 19.21 5.40 18.55 -1 21.18
6.57 -1 14.30 6.33 17.56 18.37 -1 -1 -1 -1 19.47 -1 1.12 17.56 -1 -1 -1 -1 22.30 -1 -1
10.41 3.20 19.59 22.52 3.54 4.17 -1 -1 -1 -1 18.15 9.21 -1 0.36 -1 23.16 -1 -1 22.30 -1 -1
7.35 -1 21.36 -1 13.47 6.46 -1 -1 -1 -1 21.36 13.47 14.21 -1 -1 -1 -1 -1 1.16 -1 -1
-1 -1 17.24 -1 9.47 -1 -1 -1 -1 -1 -1 -1 -1 -1 -1 -1 -1 -1 -1 -1 2.56
20.59 -1 17.08 -1 18.27 18.27 18.27 -1 -1 -1 18.09 -1 0.18 -1 -1 -1 -1 -1 -1 -1 -1
17.40 -1 15.35 -1 19.46 21.08 20.25 4.45 4.45 -1 15.35 -1 -1 -1 -1 -1 -1 17.39 -1 -1
10.32 -1 10.34 -1 16.43 21.52 23.31 17.39 17.39 21.52 18.55 22.30 22.30 1.16 -1 -1 17.39 -1 -1 19.37
16.37 -1 -1 18.30 -1 16.37 -1 -1 -1 16.37 -1 -1 -1 -1 -1 -1 -1 -1 -1 -1
20.17 -1 19.21 2.37 0.11 21.09 23.49 -1 21.09 17.40 19.38 -1 -1 -1 6.53 -1 -1 19.21 -1 -1