\relax 
\providecommand\hyper@newdestlabel[2]{}
\catcode `"\active 
\providecommand\HyperFirstAtBeginDocument{\AtBeginDocument}
\HyperFirstAtBeginDocument{\ifx\hyper@anchor\@undefined
\global\let\oldcontentsline\contentsline
\gdef\contentsline#1#2#3#4{\oldcontentsline{#1}{#2}{#3}}
\global\let\oldnewlabel\newlabel
\gdef\newlabel#1#2{\newlabelxx{#1}#2}
\gdef\newlabelxx#1#2#3#4#5#6{\oldnewlabel{#1}{{#2}{#3}}}
\AtEndDocument{\ifx\hyper@anchor\@undefined
\let\contentsline\oldcontentsline
\let\newlabel\oldnewlabel
\fi}
\fi}
\global\let\hyper@last\relax 
\gdef\HyperFirstAtBeginDocument#1{#1}
\providecommand\HyField@AuxAddToFields[1]{}
\providecommand\HyField@AuxAddToCoFields[2]{}
\babel@aux{ukrainian}{}
\@writefile{toc}{\contentsline {section}{\numberline {1}\IeC {\CYRO }\IeC {\cyrs }\IeC {\cyrn }\IeC {\cyro }\IeC {\cyrv }\IeC {\cyrn }\IeC {\cyra } \IeC {\cyrii }\IeC {\cyrn }\IeC {\cyrf }\IeC {\cyro }\IeC {\cyrr }\IeC {\cyrm }\IeC {\cyra }\IeC {\cyrc }\IeC {\cyrii }\IeC {\cyrya }}{1}{section.1}}
\@writefile{toc}{\contentsline {section}{\numberline {2}\IeC {\CYRU }\IeC {\cyrn }\IeC {\cyrii }\IeC {\cyrv }\IeC {\cyre }\IeC {\cyrr }\IeC {\cyrs }\IeC {\cyra }\IeC {\cyrl }\IeC {\cyrsftsn }\IeC {\cyrn }\IeC {\cyrii } \IeC {\cyrd }\IeC {\cyrii }\IeC {\cyryi }}{1}{section.2}}
\@writefile{toc}{\contentsline {subsection}{\numberline {2.1}\IeC {\CYRZ }\IeC {\cyra }\IeC {\cyrv }\IeC {\cyra }\IeC {\cyrn }\IeC {\cyrt }\IeC {\cyra }\IeC {\cyrzh }\IeC {\cyre }\IeC {\cyrn }\IeC {\cyrn }\IeC {\cyrya } \IeC {\cyrv }\IeC {\cyre }\IeC {\cyrb }-\IeC {\cyrd }\IeC {\cyro }\IeC {\cyrd }\IeC {\cyra }\IeC {\cyrt }\IeC {\cyrk }\IeC {\cyru } railwayWeb}{1}{subsection.2.1}}
\@writefile{toc}{\contentsline {subsection}{\numberline {2.2}\IeC {\CYRK }\IeC {\cyro }\IeC {\cyrn }\IeC {\cyrf }\IeC {\cyrii }\IeC {\cyrg }\IeC {\cyru }\IeC {\cyrr }\IeC {\cyra }\IeC {\cyrc }\IeC {\cyrii }\IeC {\cyrya } \IeC {\cyrt }\IeC {\cyru }\IeC {\cyrn }\IeC {\cyre }\IeC {\cyrl }\IeC {\cyryu }\IeC {\cyrv }\IeC {\cyra }\IeC {\cyrn }\IeC {\cyrn }\IeC {\cyrya } \IeC {\cyrd }\IeC {\cyrl }\IeC {\cyrya } \IeC {\cyro }\IeC {\cyrt }\IeC {\cyrr }\IeC {\cyri }\IeC {\cyrm }\IeC {\cyra }\IeC {\cyrn }\IeC {\cyrn }\IeC {\cyrya } \IeC {\cyrg }\IeC {\cyrl }\IeC {\cyro }\IeC {\cyrb }\IeC {\cyra }\IeC {\cyrl }\IeC {\cyrsftsn }\IeC {\cyrn }\IeC {\cyro }\IeC {\cyrg }\IeC {\cyro } \IeC {\cyrd }\IeC {\cyro }\IeC {\cyrm }\IeC {\cyre }\IeC {\cyrn }\IeC {\cyru }}{1}{subsection.2.2}}
\@writefile{lof}{\contentsline {figure}{\numberline {1}{\ignorespaces \IeC {\CYRD }\IeC {\cyre }\IeC {\cyrm }\IeC {\cyro }\IeC {\cyrn }\IeC {\cyrt }\IeC {\cyrs }\IeC {\cyrr }\IeC {\cyra }\IeC {\cyrc }\IeC {\cyrii }\IeC {\cyrya } \IeC {\cyru }\IeC {\cyrs }\IeC {\cyrp }\IeC {\cyrii }\IeC {\cyrsh }\IeC {\cyrn }\IeC {\cyro }\IeC {\cyrg }\IeC {\cyro } \IeC {\cyrz }\IeC {\cyra }\IeC {\cyrp }\IeC {\cyru }\IeC {\cyrs }\IeC {\cyrk }\IeC {\cyru } pgrok-\IeC {\cyrk }\IeC {\cyrl }\IeC {\cyrii }\IeC {\cyrie }\IeC {\cyrn }\IeC {\cyrt }\IeC {\cyru } \IeC {\cyrd }\IeC {\cyrl }\IeC {\cyrya } \IeC {\cyrt }\IeC {\cyru }\IeC {\cyrn }\IeC {\cyre }\IeC {\cyrl }\IeC {\cyryu }\IeC {\cyrv }\IeC {\cyra }\IeC {\cyrn }\IeC {\cyrn }\IeC {\cyrya } http-\IeC {\cyrt }\IeC {\cyrr }\IeC {\cyra }\IeC {\cyrf }\IeC {\cyrii }\IeC {\cyrk }\IeC {\cyru } \IeC {\cyrv }\IeC {\cyri }\IeC {\cyrz }\IeC {\cyrn }\IeC {\cyra }\IeC {\cyrch }\IeC {\cyre }\IeC {\cyrn }\IeC {\cyro }\IeC {\cyrg }\IeC {\cyro } \IeC {\cyrd }\IeC {\cyro }\IeC {\cyrm }\IeC {\cyre }\IeC {\cyrn }\IeC {\cyrn }\IeC {\cyro }\IeC {\cyrg }\IeC {\cyro } \IeC {\cyrii }\IeC {\cyrm }\IeC {\cyre }\IeC {\cyrn }\IeC {\cyrii }}}{2}{figure.1}}
\newlabel{fig:test}{{1}{2}{Демонтсрація успішного запуску pgrok-клієнту для тунелювання http-трафіку визначеного доменного імені}{figure.1}{}}
\@writefile{toc}{\contentsline {subsection}{\numberline {2.3}\IeC {\CYRD }\IeC {\cyro }\IeC {\cyrk }\IeC {\cyru }\IeC {\cyrm }\IeC {\cyre }\IeC {\cyrn }\IeC {\cyrt }\IeC {\cyra }\IeC {\cyrc }\IeC {\cyrii }\IeC {\cyrya } \IeC {\cyrp }\IeC {\cyro } \IeC {\cyrk }\IeC {\cyro }\IeC {\cyrd }\IeC {\cyru }}{2}{subsection.2.3}}
\@writefile{toc}{\contentsline {subsection}{\numberline {2.4}\IeC {\CYRK }\IeC {\cyro }\IeC {\cyrm }\IeC {\cyrp }\IeC {\cyrii }\IeC {\cyrl }\IeC {\cyrya }\IeC {\cyrc }\IeC {\cyrii }\IeC {\cyrya } \IeC {\cyrd }\IeC {\cyri }\IeC {\cyrn }\IeC {\cyra }\IeC {\cyrm }\IeC {\cyrii }\IeC {\cyrch }\IeC {\cyrn }\IeC {\cyro }\IeC {\cyryi } \IeC {\cyrb }\IeC {\cyrii }\IeC {\cyrb }\IeC {\cyrl }\IeC {\cyro }\IeC {\cyrt }\IeC {\cyre }\IeC {\cyrk }\IeC {\cyri }}{3}{subsection.2.4}}
\@writefile{toc}{\contentsline {section}{\numberline {3}\IeC {\CYRZ }\IeC {\cyra }\IeC {\cyrp }\IeC {\cyru }\IeC {\cyrs }\IeC {\cyrk } \IeC {\cyrv }\IeC {\cyre }\IeC {\cyrb }-\IeC {\cyrz }\IeC {\cyra }\IeC {\cyrs }\IeC {\cyrt }\IeC {\cyro }\IeC {\cyrs }\IeC {\cyru }\IeC {\cyrn }\IeC {\cyrk }\IeC {\cyru } \IeC {\cyrp }\IeC {\cyre }\IeC {\cyrr }\IeC {\cyrsh }\IeC {\cyri }\IeC {\cyrm } \IeC {\cyrs }\IeC {\cyrp }\IeC {\cyro }\IeC {\cyrs }\IeC {\cyro }\IeC {\cyrb }\IeC {\cyro }\IeC {\cyrm }}{3}{section.3}}
\@writefile{toc}{\contentsline {subsection}{\numberline {3.1}\IeC {\CYRV }\IeC {\cyrs }\IeC {\cyrt }\IeC {\cyra }\IeC {\cyrn }\IeC {\cyro }\IeC {\cyrv }\IeC {\cyrl }\IeC {\cyre }\IeC {\cyrn }\IeC {\cyrn }\IeC {\cyrya } Python-\IeC {\cyrii }\IeC {\cyrn }\IeC {\cyrt }\IeC {\cyre }\IeC {\cyrr }\IeC {\cyrp }\IeC {\cyrr }\IeC {\cyre }\IeC {\cyrt }\IeC {\cyra }\IeC {\cyrt }\IeC {\cyro }\IeC {\cyrr }\IeC {\cyra }}{3}{subsection.3.1}}
\@writefile{toc}{\contentsline {subsection}{\numberline {3.2}\IeC {\CYRV }\IeC {\cyrs }\IeC {\cyrt }\IeC {\cyra }\IeC {\cyrn }\IeC {\cyro }\IeC {\cyrv }\IeC {\cyrl }\IeC {\cyre }\IeC {\cyrn }\IeC {\cyrn }\IeC {\cyrya } MySQL}{3}{subsection.3.2}}
\@writefile{toc}{\contentsline {subsection}{\numberline {3.3}\IeC {\CYRV }\IeC {\cyrs }\IeC {\cyrt }\IeC {\cyra }\IeC {\cyrn }\IeC {\cyro }\IeC {\cyrv }\IeC {\cyrl }\IeC {\cyre }\IeC {\cyrn }\IeC {\cyrn }\IeC {\cyrya } Django-\IeC {\cyrf }\IeC {\cyrr }\IeC {\cyre }\IeC {\cyrishrt }\IeC {\cyrm }\IeC {\cyro }\IeC {\cyrv }\IeC {\cyrr }\IeC {\cyrk }\IeC {\cyru }}{4}{subsection.3.3}}
\@writefile{toc}{\contentsline {subsection}{\numberline {3.4}\IeC {\CYRV }\IeC {\cyrs }\IeC {\cyrt }\IeC {\cyra }\IeC {\cyrn }\IeC {\cyro }\IeC {\cyrv }\IeC {\cyrl }\IeC {\cyre }\IeC {\cyrn }\IeC {\cyrn }\IeC {\cyrya } \IeC {\cyrd }\IeC {\cyro }\IeC {\cyrd }\IeC {\cyra }\IeC {\cyrt }\IeC {\cyrk }\IeC {\cyro }\IeC {\cyrv }\IeC {\cyri }\IeC {\cyrh } \IeC {\cyrb }\IeC {\cyrii }\IeC {\cyrb }\IeC {\cyrl }\IeC {\cyrii }\IeC {\cyro }\IeC {\cyrt }\IeC {\cyre }\IeC {\cyrk }}{4}{subsection.3.4}}
\@writefile{toc}{\contentsline {subsection}{\numberline {3.5}\IeC {\CYRK }\IeC {\cyro }\IeC {\cyrn }\IeC {\cyrf }\IeC {\cyrii }\IeC {\cyrg }\IeC {\cyru }\IeC {\cyrr }\IeC {\cyra }\IeC {\cyrc }\IeC {\cyrii }\IeC {\cyrya } MySQL}{4}{subsection.3.5}}
\@writefile{toc}{\contentsline {subsection}{\numberline {3.6}\IeC {\CYRK }\IeC {\cyro }\IeC {\cyrn }\IeC {\cyrf }\IeC {\cyrii }\IeC {\cyrg }\IeC {\cyru }\IeC {\cyrr }\IeC {\cyra }\IeC {\cyrc }\IeC {\cyrii }\IeC {\cyrya } \IeC {\cyrv }\IeC {\cyre }\IeC {\cyrb }-\IeC {\cyrd }\IeC {\cyro }\IeC {\cyrd }\IeC {\cyra }\IeC {\cyrt }\IeC {\cyrk }\IeC {\cyru } railwayWeb}{5}{subsection.3.6}}
\@writefile{lof}{\contentsline {figure}{\numberline {2}{\ignorespaces \IeC {\CYRV }\IeC {\cyri }\IeC {\cyrv }\IeC {\cyrii }\IeC {\cyrd } \IeC {\cyrk }\IeC {\cyro }\IeC {\cyrm }\IeC {\cyra }\IeC {\cyrn }\IeC {\cyrd }\IeC {\cyri } 'sudo docker-compose up --build' \IeC {\cyrp }\IeC {\cyrii }\IeC {\cyrd } \IeC {\cyrch }\IeC {\cyra }\IeC {\cyrs } \IeC {\cyrp }\IeC {\cyrr }\IeC {\cyra }\IeC {\cyrv }\IeC {\cyri }\IeC {\cyrl }\IeC {\cyrsftsn }\IeC {\cyrn }\IeC {\cyro }\IeC {\cyrg }\IeC {\cyro } \IeC {\cyrz }\IeC {\cyra }\IeC {\cyrp }\IeC {\cyru }\IeC {\cyrs }\IeC {\cyrk }\IeC {\cyru } \IeC {\cyrv }\IeC {\cyre }\IeC {\cyrb }-\IeC {\cyrz }\IeC {\cyra }\IeC {\cyrs }\IeC {\cyrt }\IeC {\cyro }\IeC {\cyrs }\IeC {\cyru }\IeC {\cyrn }\IeC {\cyrk }\IeC {\cyru } railwayWeb \IeC {\cyrd }\IeC {\cyrr }\IeC {\cyru }\IeC {\cyrg }\IeC {\cyri }\IeC {\cyrm } \IeC {\cyrs }\IeC {\cyrp }\IeC {\cyro }\IeC {\cyrs }\IeC {\cyro }\IeC {\cyrb }\IeC {\cyro }\IeC {\cyrm }}}{6}{figure.2}}
\newlabel{fig:test}{{2}{6}{Вивід команди 'sudo docker-compose up --build' під час правильного запуску веб-застосунку railwayWeb другим способом}{figure.2}{}}
\@writefile{toc}{\contentsline {section}{\numberline {4}\IeC {\CYRZ }\IeC {\cyra }\IeC {\cyrp }\IeC {\cyru }\IeC {\cyrs }\IeC {\cyrk } \IeC {\cyrv }\IeC {\cyre }\IeC {\cyrb }-\IeC {\cyrz }\IeC {\cyra }\IeC {\cyrs }\IeC {\cyrt }\IeC {\cyro }\IeC {\cyrs }\IeC {\cyru }\IeC {\cyrn }\IeC {\cyrk }\IeC {\cyru } \IeC {\cyrd }\IeC {\cyrr }\IeC {\cyru }\IeC {\cyrg }\IeC {\cyri }\IeC {\cyrm } \IeC {\cyrs }\IeC {\cyrp }\IeC {\cyro }\IeC {\cyrs }\IeC {\cyro }\IeC {\cyrb }\IeC {\cyro }\IeC {\cyrm }}{6}{section.4}}
\@writefile{toc}{\contentsline {subsection}{\numberline {4.1}\IeC {\CYRV }\IeC {\cyrs }\IeC {\cyrt }\IeC {\cyra }\IeC {\cyrn }\IeC {\cyro }\IeC {\cyrv }\IeC {\cyrl }\IeC {\cyre }\IeC {\cyrn }\IeC {\cyrn }\IeC {\cyrya } Docker}{6}{subsection.4.1}}
\@writefile{toc}{\contentsline {subsection}{\numberline {4.2}\IeC {\CYRV }\IeC {\cyrs }\IeC {\cyrt }\IeC {\cyra }\IeC {\cyrn }\IeC {\cyro }\IeC {\cyrv }\IeC {\cyrl }\IeC {\cyre }\IeC {\cyrn }\IeC {\cyrn }\IeC {\cyrya } Docker Compose}{7}{subsection.4.2}}
\@writefile{toc}{\contentsline {subsection}{\numberline {4.3}\IeC {\CYRK }\IeC {\cyro }\IeC {\cyrn }\IeC {\cyrf }\IeC {\cyrii }\IeC {\cyrg }\IeC {\cyru }\IeC {\cyrr }\IeC {\cyra }\IeC {\cyrc }\IeC {\cyrii }\IeC {\cyrya } MySQL}{7}{subsection.4.3}}
\@writefile{lof}{\contentsline {figure}{\numberline {3}{\ignorespaces \IeC {\CYRV }\IeC {\cyri }\IeC {\cyrg }\IeC {\cyrl }\IeC {\cyrya }\IeC {\cyrd } \IeC {\cyrg }\IeC {\cyro }\IeC {\cyrl }\IeC {\cyro }\IeC {\cyrv }\IeC {\cyrn }\IeC {\cyro }\IeC {\cyryi } \IeC {\cyrs }\IeC {\cyrt }\IeC {\cyro }\IeC {\cyrr }\IeC {\cyrii }\IeC {\cyrn }\IeC {\cyrk }\IeC {\cyri } \IeC {\cyrv }\IeC {\cyre }\IeC {\cyrb }-\IeC {\cyrp }\IeC {\cyrr }\IeC {\cyro }\IeC {\cyre }\IeC {\cyrk }\IeC {\cyrt }\IeC {\cyru } railwayWeb, \IeC {\cyrya }\IeC {\cyrk }\IeC {\cyra } \IeC {\cyrm }\IeC {\cyra }\IeC {\cyrie } \IeC {\cyrb }\IeC {\cyru }\IeC {\cyrt }\IeC {\cyri } \IeC {\cyrd }\IeC {\cyro }\IeC {\cyrs }\IeC {\cyrt }\IeC {\cyru }\IeC {\cyrp }\IeC {\cyrn }\IeC {\cyra } \IeC {\cyrz }\IeC {\cyra } URL-\IeC {\cyra }\IeC {\cyrd }\IeC {\cyrr }\IeC {\cyre }\IeC {\cyrs }\IeC {\cyro }\IeC {\cyryu } https://railwayweb.ejemplo.me \IeC {\cyru } \IeC {\cyrk }\IeC {\cyrii }\IeC {\cyrn }\IeC {\cyrc }\IeC {\cyrii } \IeC {\cyrk }\IeC {\cyro }\IeC {\cyrn }\IeC {\cyrf }\IeC {\cyrii }\IeC {\cyrg }\IeC {\cyru }\IeC {\cyrr }\IeC {\cyra }\IeC {\cyrc }\IeC {\cyrii }\IeC {\cyryi } \IeC {\cyrt }\IeC {\cyra } \IeC {\cyrn }\IeC {\cyra }\IeC {\cyrl }\IeC {\cyra }\IeC {\cyrsh }\IeC {\cyrt }\IeC {\cyru }\IeC {\cyrv }\IeC {\cyra }\IeC {\cyrn }\IeC {\cyrn }\IeC {\cyrya } \IeC {\cyrs }\IeC {\cyra }\IeC {\cyrm }\IeC {\cyro }\IeC {\cyrg }\IeC {\cyro } \IeC {\cyrp }\IeC {\cyrr }\IeC {\cyro }\IeC {\cyre }\IeC {\cyrk }\IeC {\cyrt }\IeC {\cyru }}}{8}{figure.3}}
\newlabel{fig:test}{{3}{8}{Вигляд головної сторінки веб-проекту railwayWeb, яка має бути доступна за URL-адресою https://railwayweb.ejemplo.me у кінці конфігурації та налаштування самого проекту}{figure.3}{}}
\@writefile{toc}{\contentsline {subsection}{\numberline {4.4}\IeC {\CYRK }\IeC {\cyro }\IeC {\cyrn }\IeC {\cyrf }\IeC {\cyrii }\IeC {\cyrg }\IeC {\cyru }\IeC {\cyrr }\IeC {\cyra }\IeC {\cyrc }\IeC {\cyrii }\IeC {\cyrya } \IeC {\cyrv }\IeC {\cyre }\IeC {\cyrb }-\IeC {\cyrd }\IeC {\cyro }\IeC {\cyrd }\IeC {\cyra }\IeC {\cyrt }\IeC {\cyrk }\IeC {\cyru } railwayWeb}{8}{subsection.4.4}}
\@writefile{toc}{\contentsline {section}{\numberline {5}\IeC {\CYRD }\IeC {\cyro }\IeC {\cyrd }\IeC {\cyra }\IeC {\cyrt }\IeC {\cyrk }\IeC {\cyro }\IeC {\cyrv }\IeC {\cyrii } \IeC {\cyrv }\IeC {\cyrii }\IeC {\cyrd }\IeC {\cyro }\IeC {\cyrm }\IeC {\cyro }\IeC {\cyrs }\IeC {\cyrt }\IeC {\cyrii } \IeC {\cyrp }\IeC {\cyrr }\IeC {\cyro } \IeC {\cyrz }\IeC {\cyra }\IeC {\cyrp }\IeC {\cyru }\IeC {\cyrs }\IeC {\cyrk } \IeC {\cyrp }\IeC {\cyrr }\IeC {\cyro }\IeC {\cyre }\IeC {\cyrk }\IeC {\cyrt }\IeC {\cyru } \IeC {\cyrn }\IeC {\cyra } \IeC {\cyrh }\IeC {\cyro }\IeC {\cyrs }\IeC {\cyrt }\IeC {\cyrii }\IeC {\cyrn }\IeC {\cyrg }\IeC {\cyru }}{9}{section.5}}
\@writefile{toc}{\contentsline {subsection}{\numberline {5.1}WSGI-\IeC {\cyrs }\IeC {\cyrk }\IeC {\cyrr }\IeC {\cyri }\IeC {\cyrp }\IeC {\cyrt }}{9}{subsection.5.1}}
\@writefile{toc}{\contentsline {subsection}{\numberline {5.2}\IeC {\CYRN }\IeC {\cyra }\IeC {\cyrl }\IeC {\cyra }\IeC {\cyrsh }\IeC {\cyrt }\IeC {\cyru }\IeC {\cyrv }\IeC {\cyra }\IeC {\cyrn }\IeC {\cyrn }\IeC {\cyrya } MySQL}{10}{subsection.5.2}}
\@writefile{toc}{\contentsline {subsection}{\numberline {5.3}\IeC {\CYRS }\IeC {\cyrt }\IeC {\cyrv }\IeC {\cyro }\IeC {\cyrr }\IeC {\cyre }\IeC {\cyrn }\IeC {\cyrn }\IeC {\cyrya } \IeC {\cyrv }\IeC {\cyrii }\IeC {\cyrr }\IeC {\cyrt }\IeC {\cyru }\IeC {\cyra }\IeC {\cyrl }\IeC {\cyrsftsn }\IeC {\cyrn }\IeC {\cyro }\IeC {\cyrg }\IeC {\cyro } \IeC {\cyro }\IeC {\cyrt }\IeC {\cyro }\IeC {\cyrch }\IeC {\cyre }\IeC {\cyrn }\IeC {\cyrn }\IeC {\cyrya }}{10}{subsection.5.3}}
\@writefile{toc}{\contentsline {subsection}{\numberline {5.4}\IeC {\CYRZ }\IeC {\cyrb }\IeC {\cyri }\IeC {\cyrr }\IeC {\cyra }\IeC {\cyrn }\IeC {\cyrn }\IeC {\cyrya } \IeC {\cyrs }\IeC {\cyrt }\IeC {\cyra }\IeC {\cyrt }\IeC {\cyri }\IeC {\cyrch }\IeC {\cyrn }\IeC {\cyri }\IeC {\cyrh } \IeC {\cyrf }\IeC {\cyra }\IeC {\cyrishrt }\IeC {\cyrl }\IeC {\cyrii }\IeC {\cyrv }}{10}{subsection.5.4}}
